{
  "pessoas": [
    {
      "id": 2,
      "nome": "Pedro",
      "cpf": "321",
      "img": ""
    },
    {
      "id": 3,
      "nome": "Yuri",
      "cpf": "543",
      "img": ""
    },
    {
      "id": 4,
      "nome": "Yan",
      "cpf": "536",
      "img": ""
    },
    {
      "img": "C:\\fakepath\\F (5).png",
      "nome": "Marcão Caçador de Lhama",
      "cpf": "9849500495",
      "id": 5
    },
    {
      "img": "C:\\fakepath\\Tarefa_Recursão (1).docx",
      "nome": "test",
      "cpf": "1245",
      "id": 6
    },
    {
      "nome": "232",
      "cpf": "4214",
      "img": "C:\\fakepath\\Cópia de Cópia de Facilita (2).png",
      "id": 10
    },
    {
      "nome": "232",
      "cpf": "4214",
      "img": "C:\\fakepath\\Cópia de Cópia de Facilita (2).png",
      "id": 11
    },
    {
      "img": "",
      "nome": "Geraldão",
      "cpf": "411",
      "id": 12
    },
    {
      "nome": "test",
      "cpf": "5444523",
      "img": "C:\\fakepath\\Dia-gramaDCU-01-Página-2.png",
      "id": 13
    }
  ]
}